msu_linked_list/quartus_demo/demo_step1/simulation/modelsim/dump.vcd
$date
	Mon Sep 13 19:10:05 2021
$end
$version
	ModelSim Version 2020.1
$end
$timescale
	1ps
$end

$scope module test $end
$var reg 1 ! clk $end
$var reg 1 " rst $end
$var reg 4 # out_ptr [3:0] $end
$var wire 1 $ out_ptr_vld $end
$var integer 32 % cycle $end

$scope module i_req_gen $end
$var wire 1 & clk $end
$var wire 1 ' rst $end
$var reg 4 ( out_ptr [3:0] $end
$var wire 1 $ out_ptr_vld $end
$var reg 4 ) start [3:0] $end
$var wire 1 * start_vld $end
$var wire 1 + start_rdy $end

$scope module i_start_req_gen $end
$var wire 1 & clk $end
$var wire 1 ' rst $end
$var reg 4 , start [3:0] $end
$var wire 1 * start_vld $end
$var wire 1 + start_rdy $end
$var reg 4 - n_req [3:0] $end
$upscope $end

$scope module i_ptr_seq_gen $end
$var wire 1 & clk $end
$var wire 1 ' rst $end
$var wire 1 . start [3] $end
$var wire 1 / start [2] $end
$var wire 1 0 start [1] $end
$var wire 1 1 start [0] $end
$var wire 1 * start_vld $end
$var wire 1 + start_rdy $end
$var reg 4 2 out_ptr [3:0] $end
$var reg 1 3 out_ptr_vld $end
$var reg 4 4 cur [3:0] $end
$var reg 1 5 cur_vld $end
$upscope $end
$upscope $end
$upscope $end
$enddefinitions $end
#0
$dumpvars
0!
1"
bx #
bx (
b111 )
b111 ,
b0 -
bx 2
03
b111 4
15
b0 %
0$
1*
0+
0&
1'
11
10
1/
0.
$end
#5
1!
1&
b1 %
b111 2
b111 (
b111 #
b0 4
b111 4
#10
0!
0&
#15
1!
1&
b10 %
0"
0'
#20
0!
0&
#25
1!
1&
b11 %
13
1$
b0 4
b1111 4
#30
0!
0&
#35
1!
1&
b100 %
b1111 2
b1111 (
b1111 #
b0 4
b1000 4
#40
0!
0&
#45
1!
1&
b101 %
b1000 2
b1000 (
b1000 #
b0 4
05
1+
#50
0!
0&
#55
1!
1&
b110 %
b1 -
03
b0 2
b0 (
0$
b0 #
b111 4
15
b110 ,
0+
b110 )
01
b0 4
b110 4
#60
0!
0&
#65
1!
1&
b111 %
13
b110 2
b110 (
1$
b110 #
b0 4
05
1+
#70
0!
0&
#75
1!
1&
b1000 %
b10 -
03
b0 2
b0 (
0$
b0 #
b110 4
15
b10 ,
0+
b10 )
0/
b0 4
b10 4
#80
0!
0&
#85
1!
1&
b1001 %
13
b10 2
b10 (
1$
b10 #
b0 4
b100 4
#90
0!
0&
#95
1!
1&
b1010 %
b100 2
b100 (
b100 #
b0 4
05
1+
#100
0!
0&
#105
1!
1&
b1011 %
b11 -
03
b0 2
b0 (
0$
b0 #
b10 4
15
b1 ,
0+
b1 )
11
00
b0 4
b1 4
#110
0!
0&
#115
1!
1&
b1100 %
13
b1 2
b1 (
1$
b1 #
b0 4
b101 4
#120
0!
0&
#125
1!
1&
b1101 %
b101 2
b101 (
b101 #
b0 4
b11 4
#130
0!
0&
#135
1!
1&
b1110 %
b11 2
b11 (
b11 #
b0 4
b1010 4
#140
0!
0&
#145
1!
1&
b1111 %
b1010 2
b1010 (
b1010 #
b0 4
05
1+
#150
0!
0&
#155
1!
1&
b10000 %
b100 -
03
b0 2
b0 (
0$
b0 #
b1 4
15
b0 ,
0+
b0 )
01
b0 4
05
1+
#160
0!
0&
#165
1!
1&
b10001 %
b101 -
b1001 ,
b1001 )
11
1.
b1001 4
15
0+
#170
0!
0&
#175
1!
1&
b10010 %
13
b1001 2
b1001 (
1$
b1001 #
b0 4
b1110 4
#180
0!
0&
#185
1!
1&
b10011 %
b1110 2
b1110 (
b1110 #
b0 4
b1011 4
#190
0!
0&
#195
1!
1&
b10100 %
b1011 2
b1011 (
b1011 #
b0 4
b1101 4
#200
0!
0&
#205
1!
1&
b10101 %
b1101 2
b1101 (
b1101 #
b0 4
b1100 4
#210
0!
0&
#215
1!
1&
b10110 %
b1100 2
b1100 (
b1100 #
b0 4
05
1+
#220
0!
0&
#225
1!
1&
b10111 %
b110 -
03
b0 2
b0 (
0$
b0 #
b1001 4
15
0+
#230
0!
0&
#235
1!
1&
b11000 %
13
b1001 2
b1001 (
1$
b1001 #
b0 4
b1110 4
#240
0!
0&
#245
1!
1&
b11001 %
b1110 2
b1110 (
b1110 #
b0 4
b1011 4
#250
0!
0&
#255
1!
1&
b11010 %
b1011 2
b1011 (
b1011 #
b0 4
b1101 4
#260
0!
0&
#265
1!
1&
b11011 %
b1101 2
b1101 (
b1101 #
b0 4
b1100 4
#270
0!
0&
#275
1!
1&
b11100 %
b1100 2
b1100 (
b1100 #
b0 4
05
1+
#280
0!
0&
#285
1!
1&
b11101 %
b111 -
03
b0 2
b0 (
0$
b0 #
b1001 4
15
0+
#290
0!
0&
#295
1!
1&
b11110 %
13
b1001 2
b1001 (
1$
b1001 #
b0 4
b1110 4
#300
0!
0&
#305
1!
1&
b11111 %
b1110 2
b1110 (
b1110 #
b0 4
b1011 4
#310
0!
0&
#315
1!
1&
b100000 %
b1011 2
b1011 (
b1011 #
b0 4
b1101 4
#320
0!
0&
#325
1!
1&
b100001 %
b1101 2
b1101 (
b1101 #
b0 4
b1100 4
#330
0!
0&
#335
1!
1&
b100010 %
b1100 2
b1100 (
b1100 #
b0 4
05
1+
#340
0!
0&
#345
1!
1&
b100011 %
b1000 -
03
b0 2
b0 (
0$
b0 #
0*
#350
0!
0&
#355
1!
1&
b100100 %
b1001 -
1*
b1001 4
15
0+
#360
0!
0&
#365
1!
1&
b100101 %
13
b1001 2
b1001 (
1$
b1001 #
b0 4
b1110 4
#370
0!
0&
#375
1!
1&
b100110 %
b1110 2
b1110 (
b1110 #
b0 4
b1011 4
#380
0!
0&
#385
1!
1&
b100111 %
b1011 2
b1011 (
b1011 #
b0 4
b1101 4
#390
0!
0&
#395
1!
1&
b101000 %
b1101 2
b1101 (
b1101 #
b0 4
b1100 4
#400
0!
0&
#405
1!
1&
b101001 %
b1100 2
b1100 (
b1100 #
b0 4
05
1+
#410
0!
0&
#415
1!
1&
b101010 %
b1010 -
03
b0 2
b0 (
0$
b0 #
b1001 4
15
0+
#420
0!
0&
#425
1!
1&
b101011 %
13
b1001 2
b1001 (
1$
b1001 #
b0 4
b1110 4
#430
0!
0&
#435
1!
1&
b101100 %
b1110 2
b1110 (
b1110 #
b0 4
b1011 4
#440
0!
0&
#445
1!
1&
b101101 %
b1011 2
b1011 (
b1011 #
b0 4
b1101 4
#450
0!
0&
#455
1!
1&
b101110 %
b1101 2
b1101 (
b1101 #
b0 4
b1100 4
#460
0!
0&
#465
1!
1&
b101111 %
b1100 2
b1100 (
b1100 #
b0 4
05
1+
#470
0!
0&
#475
1!
1&
b110000 %
b1011 -
03
b0 2
b0 (
0$
b0 #
b1001 4
15
0+
#480
0!
0&
#485
1!
1&
b110001 %
13
b1001 2
b1001 (
1$
b1001 #
b0 4
b1110 4
#490
0!
0&
#495
1!
1&
b110010 %
b1110 2
b1110 (
b1110 #
b0 4
b1011 4
#500
0!
0&
#505
1!
1&
b110011 %
b1011 2
b1011 (
b1011 #
b0 4
b1101 4
#510
0!
0&
#515
1!
1&
b110100 %
